<svg width="50" height="24" viewBox="0 0 50 24" fill="none" xmlns="http://www.w3.org/2000/svg">
<rect x="0.605469" y="0.012207" width="49.0208" height="23" rx="4" fill="#FF6D43" fill-opacity="0.3"/>
<g clip-path="url(#clip0_1_1217)">
<path d="M12.141 14.6941L17.7979 14.6941L17.7979 9.0373L15.6765 11.1586L12.141 7.62308L10.7268 9.0373L14.2623 12.5728L12.141 14.6941Z" fill="#945F4E"/>
</g>
<path d="M25.0063 8.61221V7.78221H26.8863V15.0122H25.9663V8.61221H25.0063ZM28.3394 14.2822C29.1861 13.6022 29.8494 13.0455 30.3294 12.6122C30.8094 12.1722 31.2127 11.7155 31.5394 11.2422C31.8727 10.7622 32.0394 10.2922 32.0394 9.83221C32.0394 9.39887 31.9327 9.05887 31.7194 8.81221C31.5127 8.55887 31.1761 8.43221 30.7094 8.43221C30.2561 8.43221 29.9027 8.57554 29.6494 8.86221C29.4027 9.14221 29.2694 9.51887 29.2494 9.99221H28.3694C28.3961 9.24554 28.6227 8.66887 29.0494 8.26221C29.4761 7.85554 30.0261 7.65221 30.6994 7.65221C31.3861 7.65221 31.9294 7.84221 32.3294 8.22221C32.7361 8.60221 32.9394 9.12554 32.9394 9.79221C32.9394 10.3455 32.7727 10.8855 32.4394 11.4122C32.1127 11.9322 31.7394 12.3922 31.3194 12.7922C30.8994 13.1855 30.3627 13.6455 29.7094 14.1722H33.1494V14.9322H28.3394V14.2822ZM34.0014 9.41221C34.0014 8.95887 34.138 8.59887 34.4114 8.33221C34.6847 8.05887 35.0347 7.92221 35.4614 7.92221C35.888 7.92221 36.238 8.05887 36.5114 8.33221C36.7847 8.59887 36.9214 8.95887 36.9214 9.41221C36.9214 9.87221 36.7847 10.2389 36.5114 10.5122C36.238 10.7789 35.888 10.9122 35.4614 10.9122C35.0347 10.9122 34.6847 10.7789 34.4114 10.5122C34.138 10.2389 34.0014 9.87221 34.0014 9.41221ZM39.8414 8.03221L35.7914 15.0122H34.8914L38.9414 8.03221H39.8414ZM35.4614 8.48221C35.2347 8.48221 35.0547 8.56221 34.9214 8.72221C34.7947 8.87554 34.7314 9.10554 34.7314 9.41221C34.7314 9.71887 34.7947 9.95221 34.9214 10.1122C35.0547 10.2722 35.2347 10.3522 35.4614 10.3522C35.688 10.3522 35.868 10.2722 36.0014 10.1122C36.1347 9.94554 36.2014 9.71221 36.2014 9.41221C36.2014 9.10554 36.1347 8.87554 36.0014 8.72221C35.868 8.56221 35.688 8.48221 35.4614 8.48221ZM37.8314 13.6322C37.8314 13.1722 37.968 12.8089 38.2414 12.5422C38.5147 12.2689 38.8647 12.1322 39.2914 12.1322C39.718 12.1322 40.0647 12.2689 40.3314 12.5422C40.6047 12.8089 40.7414 13.1722 40.7414 13.6322C40.7414 14.0855 40.6047 14.4489 40.3314 14.7222C40.0647 14.9955 39.718 15.1322 39.2914 15.1322C38.8647 15.1322 38.5147 14.9989 38.2414 14.7322C37.968 14.4589 37.8314 14.0922 37.8314 13.6322ZM39.2814 12.7022C39.0547 12.7022 38.8747 12.7822 38.7414 12.9422C38.608 13.0955 38.5414 13.3255 38.5414 13.6322C38.5414 13.9322 38.608 14.1622 38.7414 14.3222C38.8747 14.4755 39.0547 14.5522 39.2814 14.5522C39.508 14.5522 39.688 14.4755 39.8214 14.3222C39.9547 14.1622 40.0214 13.9322 40.0214 13.6322C40.0214 13.3255 39.9547 13.0955 39.8214 12.9422C39.688 12.7822 39.508 12.7022 39.2814 12.7022Z" fill="#945F4E"/>
<defs>
<clipPath id="clip0_1_1217">
<rect width="8" height="9" fill="white" transform="translate(20.6263 11.8657) rotate(135)"/>
</clipPath>
</defs>
</svg>
