<svg width="23" height="20" viewBox="0 0 23 20" fill="none" xmlns="http://www.w3.org/2000/svg">
<g clip-path="url(#clip0_1_1228)">
<path d="M15.3047 14.1637H17.3326" stroke="#131316" stroke-width="1.5" stroke-linecap="round" stroke-linejoin="round"/>
<path d="M5.16406 6.05225H7.19194" stroke="#131316" stroke-width="1.5" stroke-linecap="round" stroke-linejoin="round"/>
<path d="M11.2466 13.1498C12.3666 13.1498 13.2745 11.7879 13.2745 10.108C13.2745 8.42803 12.3666 7.06616 11.2466 7.06616C10.1267 7.06616 9.21875 8.42803 9.21875 10.108C9.21875 11.7879 10.1267 13.1498 11.2466 13.1498Z" stroke="#131316" stroke-width="1.5" stroke-miterlimit="10"/>
<path d="M17.3324 1.99646H5.16512C2.9252 1.99646 1.10938 3.81228 1.10938 6.05221V14.1637C1.10938 16.4036 2.9252 18.2195 5.16512 18.2195H17.3324C19.5723 18.2195 21.3881 16.4036 21.3881 14.1637V6.05221C21.3881 3.81228 19.5723 1.99646 17.3324 1.99646Z" stroke="#131316" stroke-width="1.5" stroke-miterlimit="10"/>
</g>
<defs>
<clipPath id="clip0_1_1228">
<rect width="22.3066" height="18.2509" fill="white" transform="translate(0.09375 0.982544)"/>
</clipPath>
</defs>
</svg>
